<mxfile host="app.diagrams.net" modified="2024-03-08T11:39:30.588Z" agent="Mozilla/5.0 (Macintosh; Intel Mac OS X 10_15_7) AppleWebKit/537.36 (KHTML, like Gecko) Chrome/122.0.0.0 Safari/537.36" etag="8fohF6bAiaLVhXHiRDjB" version="24.0.2" type="device">
  <diagram name="Página-1" id="d1lwNyfp05SzcA5u_9KP">
    <mxGraphModel dx="1185" dy="660" grid="1" gridSize="10" guides="1" tooltips="1" connect="1" arrows="1" fold="1" page="1" pageScale="1" pageWidth="827" pageHeight="1169" math="0" shadow="0">
      <root>
        <mxCell id="0" />
        <mxCell id="1" parent="0" />
        <mxCell id="o8yEvAvre60v6KS-ea3h-12" value="" style="group" parent="1" vertex="1" connectable="0">
          <mxGeometry x="40" y="80" width="390" height="180" as="geometry" />
        </mxCell>
        <mxCell id="o8yEvAvre60v6KS-ea3h-5" value="" style="shape=cube;whiteSpace=wrap;html=1;boundedLbl=1;backgroundOutline=1;darkOpacity=0.05;darkOpacity2=0.1;" parent="o8yEvAvre60v6KS-ea3h-12" vertex="1">
          <mxGeometry width="390" height="180" as="geometry" />
        </mxCell>
        <mxCell id="o8yEvAvre60v6KS-ea3h-1" value="" style="html=1;whiteSpace=wrap;strokeColor=none;fillColor=#0079D6;labelPosition=center;verticalLabelPosition=middle;verticalAlign=top;align=center;fontSize=12;outlineConnect=0;spacingTop=-6;fontColor=#FFFFFF;sketch=0;shape=mxgraph.sitemap.services;" parent="o8yEvAvre60v6KS-ea3h-12" vertex="1">
          <mxGeometry x="240" y="65" width="85.72" height="50" as="geometry" />
        </mxCell>
        <mxCell id="o8yEvAvre60v6KS-ea3h-6" value="Container1" style="text;html=1;align=center;verticalAlign=middle;whiteSpace=wrap;rounded=0;" parent="o8yEvAvre60v6KS-ea3h-12" vertex="1">
          <mxGeometry x="165" width="55" height="20" as="geometry" />
        </mxCell>
        <mxCell id="o8yEvAvre60v6KS-ea3h-7" value="" style="shadow=0;dashed=0;html=1;strokeColor=none;fillColor=#4495D1;labelPosition=center;verticalLabelPosition=bottom;verticalAlign=top;align=center;outlineConnect=0;shape=mxgraph.veeam.2d.file_system_browser;" parent="o8yEvAvre60v6KS-ea3h-12" vertex="1">
          <mxGeometry x="60" y="55" width="80" height="70" as="geometry" />
        </mxCell>
        <mxCell id="o8yEvAvre60v6KS-ea3h-8" value="Estructura&lt;div&gt;Ficheros&lt;/div&gt;" style="text;html=1;align=center;verticalAlign=middle;whiteSpace=wrap;rounded=0;" parent="o8yEvAvre60v6KS-ea3h-12" vertex="1">
          <mxGeometry x="70" y="125" width="60" height="30" as="geometry" />
        </mxCell>
        <mxCell id="o8yEvAvre60v6KS-ea3h-9" value="Proceso" style="text;html=1;align=center;verticalAlign=middle;whiteSpace=wrap;rounded=0;" parent="o8yEvAvre60v6KS-ea3h-12" vertex="1">
          <mxGeometry x="252.86" y="115" width="60" height="30" as="geometry" />
        </mxCell>
        <mxCell id="o8yEvAvre60v6KS-ea3h-14" value="" style="group" parent="1" vertex="1" connectable="0">
          <mxGeometry x="600" y="80" width="390" height="180" as="geometry" />
        </mxCell>
        <mxCell id="o8yEvAvre60v6KS-ea3h-24" style="edgeStyle=orthogonalEdgeStyle;rounded=0;orthogonalLoop=1;jettySize=auto;html=1;" parent="o8yEvAvre60v6KS-ea3h-14" source="o8yEvAvre60v6KS-ea3h-15" edge="1">
          <mxGeometry relative="1" as="geometry">
            <mxPoint x="-170" y="90" as="targetPoint" />
          </mxGeometry>
        </mxCell>
        <mxCell id="o8yEvAvre60v6KS-ea3h-15" value="" style="shape=cube;whiteSpace=wrap;html=1;boundedLbl=1;backgroundOutline=1;darkOpacity=0.05;darkOpacity2=0.1;" parent="o8yEvAvre60v6KS-ea3h-14" vertex="1">
          <mxGeometry width="390" height="180" as="geometry" />
        </mxCell>
        <mxCell id="o8yEvAvre60v6KS-ea3h-16" value="" style="html=1;whiteSpace=wrap;strokeColor=none;fillColor=#0079D6;labelPosition=center;verticalLabelPosition=middle;verticalAlign=top;align=center;fontSize=12;outlineConnect=0;spacingTop=-6;fontColor=#FFFFFF;sketch=0;shape=mxgraph.sitemap.services;" parent="o8yEvAvre60v6KS-ea3h-14" vertex="1">
          <mxGeometry x="240" y="65" width="85.72" height="50" as="geometry" />
        </mxCell>
        <mxCell id="o8yEvAvre60v6KS-ea3h-17" value="Container2" style="text;html=1;align=center;verticalAlign=middle;whiteSpace=wrap;rounded=0;" parent="o8yEvAvre60v6KS-ea3h-14" vertex="1">
          <mxGeometry x="165" width="55" height="20" as="geometry" />
        </mxCell>
        <mxCell id="o8yEvAvre60v6KS-ea3h-18" value="" style="shadow=0;dashed=0;html=1;strokeColor=none;fillColor=#4495D1;labelPosition=center;verticalLabelPosition=bottom;verticalAlign=top;align=center;outlineConnect=0;shape=mxgraph.veeam.2d.file_system_browser;" parent="o8yEvAvre60v6KS-ea3h-14" vertex="1">
          <mxGeometry x="60" y="55" width="80" height="70" as="geometry" />
        </mxCell>
        <mxCell id="o8yEvAvre60v6KS-ea3h-19" value="Estructura&lt;div&gt;Ficheros&lt;/div&gt;" style="text;html=1;align=center;verticalAlign=middle;whiteSpace=wrap;rounded=0;" parent="o8yEvAvre60v6KS-ea3h-14" vertex="1">
          <mxGeometry x="70" y="125" width="60" height="30" as="geometry" />
        </mxCell>
        <mxCell id="o8yEvAvre60v6KS-ea3h-20" value="Proceso" style="text;html=1;align=center;verticalAlign=middle;whiteSpace=wrap;rounded=0;" parent="o8yEvAvre60v6KS-ea3h-14" vertex="1">
          <mxGeometry x="252.86" y="115" width="60" height="30" as="geometry" />
        </mxCell>
        <mxCell id="o8yEvAvre60v6KS-ea3h-21" value="" style="shape=datastore;whiteSpace=wrap;html=1;" parent="1" vertex="1">
          <mxGeometry x="120" y="350" width="60" height="60" as="geometry" />
        </mxCell>
        <mxCell id="o8yEvAvre60v6KS-ea3h-22" style="edgeStyle=orthogonalEdgeStyle;rounded=0;orthogonalLoop=1;jettySize=auto;html=1;entryX=0.5;entryY=0;entryDx=0;entryDy=0;" parent="1" source="o8yEvAvre60v6KS-ea3h-5" target="o8yEvAvre60v6KS-ea3h-21" edge="1">
          <mxGeometry relative="1" as="geometry" />
        </mxCell>
        <mxCell id="o8yEvAvre60v6KS-ea3h-26" value="Volumes" style="edgeLabel;html=1;align=center;verticalAlign=middle;resizable=0;points=[];" parent="o8yEvAvre60v6KS-ea3h-22" vertex="1" connectable="0">
          <mxGeometry x="-0.7257" y="-1" relative="1" as="geometry">
            <mxPoint as="offset" />
          </mxGeometry>
        </mxCell>
        <mxCell id="o8yEvAvre60v6KS-ea3h-23" style="edgeStyle=orthogonalEdgeStyle;rounded=0;orthogonalLoop=1;jettySize=auto;html=1;entryX=0;entryY=0.5;entryDx=0;entryDy=0;entryPerimeter=0;" parent="1" source="o8yEvAvre60v6KS-ea3h-5" target="o8yEvAvre60v6KS-ea3h-15" edge="1">
          <mxGeometry relative="1" as="geometry" />
        </mxCell>
        <mxCell id="o8yEvAvre60v6KS-ea3h-25" value="Network" style="edgeLabel;html=1;align=center;verticalAlign=middle;resizable=0;points=[];" parent="o8yEvAvre60v6KS-ea3h-23" vertex="1" connectable="0">
          <mxGeometry x="-0.0504" relative="1" as="geometry">
            <mxPoint as="offset" />
          </mxGeometry>
        </mxCell>
        <mxCell id="o8yEvAvre60v6KS-ea3h-27" value="" style="group" parent="1" vertex="1" connectable="0">
          <mxGeometry x="120" y="510" width="390" height="180" as="geometry" />
        </mxCell>
        <mxCell id="o8yEvAvre60v6KS-ea3h-28" value="" style="shape=cube;whiteSpace=wrap;html=1;boundedLbl=1;backgroundOutline=1;darkOpacity=0.05;darkOpacity2=0.1;" parent="o8yEvAvre60v6KS-ea3h-27" vertex="1">
          <mxGeometry width="390" height="180" as="geometry" />
        </mxCell>
        <mxCell id="o8yEvAvre60v6KS-ea3h-29" value="" style="html=1;whiteSpace=wrap;strokeColor=none;fillColor=#0079D6;labelPosition=center;verticalLabelPosition=middle;verticalAlign=top;align=center;fontSize=12;outlineConnect=0;spacingTop=-6;fontColor=#FFFFFF;sketch=0;shape=mxgraph.sitemap.services;" parent="o8yEvAvre60v6KS-ea3h-27" vertex="1">
          <mxGeometry x="240" y="65" width="85.72" height="50" as="geometry" />
        </mxCell>
        <mxCell id="o8yEvAvre60v6KS-ea3h-30" value="docker run -it &lt;font color=&quot;#ff3e29&quot;&gt;&lt;b&gt;ubuntu&lt;/b&gt;&lt;/font&gt; &lt;font color=&quot;#4c00ff&quot;&gt;&lt;b&gt;bash&lt;/b&gt;&lt;/font&gt;" style="text;html=1;align=center;verticalAlign=middle;whiteSpace=wrap;rounded=0;" parent="o8yEvAvre60v6KS-ea3h-27" vertex="1">
          <mxGeometry x="107.5" width="175" height="20" as="geometry" />
        </mxCell>
        <mxCell id="o8yEvAvre60v6KS-ea3h-31" value="" style="shadow=0;dashed=0;html=1;strokeColor=none;fillColor=#4495D1;labelPosition=center;verticalLabelPosition=bottom;verticalAlign=top;align=center;outlineConnect=0;shape=mxgraph.veeam.2d.file_system_browser;" parent="o8yEvAvre60v6KS-ea3h-27" vertex="1">
          <mxGeometry x="60" y="55" width="80" height="70" as="geometry" />
        </mxCell>
        <mxCell id="o8yEvAvre60v6KS-ea3h-32" value="ubuntu" style="text;html=1;align=center;verticalAlign=middle;whiteSpace=wrap;rounded=0;" parent="o8yEvAvre60v6KS-ea3h-27" vertex="1">
          <mxGeometry x="70" y="125" width="60" height="30" as="geometry" />
        </mxCell>
        <mxCell id="o8yEvAvre60v6KS-ea3h-33" value="bash" style="text;html=1;align=center;verticalAlign=middle;whiteSpace=wrap;rounded=0;" parent="o8yEvAvre60v6KS-ea3h-27" vertex="1">
          <mxGeometry x="252.86" y="115" width="60" height="30" as="geometry" />
        </mxCell>
        <mxCell id="o8yEvAvre60v6KS-ea3h-35" value="" style="group" parent="1" vertex="1" connectable="0">
          <mxGeometry x="620" y="520" width="550" height="180" as="geometry" />
        </mxCell>
        <mxCell id="o8yEvAvre60v6KS-ea3h-36" value="" style="shape=cube;whiteSpace=wrap;html=1;boundedLbl=1;backgroundOutline=1;darkOpacity=0.05;darkOpacity2=0.1;" parent="o8yEvAvre60v6KS-ea3h-35" vertex="1">
          <mxGeometry width="390" height="180" as="geometry" />
        </mxCell>
        <mxCell id="o8yEvAvre60v6KS-ea3h-37" value="" style="html=1;whiteSpace=wrap;strokeColor=none;fillColor=#0079D6;labelPosition=center;verticalLabelPosition=middle;verticalAlign=top;align=center;fontSize=12;outlineConnect=0;spacingTop=-6;fontColor=#FFFFFF;sketch=0;shape=mxgraph.sitemap.services;" parent="o8yEvAvre60v6KS-ea3h-35" vertex="1">
          <mxGeometry x="240" y="65" width="85.72" height="50" as="geometry" />
        </mxCell>
        <mxCell id="o8yEvAvre60v6KS-ea3h-39" value="" style="shadow=0;dashed=0;html=1;strokeColor=none;fillColor=#4495D1;labelPosition=center;verticalLabelPosition=bottom;verticalAlign=top;align=center;outlineConnect=0;shape=mxgraph.veeam.2d.file_system_browser;" parent="o8yEvAvre60v6KS-ea3h-35" vertex="1">
          <mxGeometry x="60" y="55" width="80" height="70" as="geometry" />
        </mxCell>
        <mxCell id="o8yEvAvre60v6KS-ea3h-40" value="jpaniorte/svc_tasks&lt;br&gt;/app/volume1&lt;div&gt;/app/volume2&lt;/div&gt;" style="text;html=1;align=center;verticalAlign=middle;whiteSpace=wrap;rounded=0;" parent="o8yEvAvre60v6KS-ea3h-35" vertex="1">
          <mxGeometry x="71" y="134" width="60" height="30" as="geometry" />
        </mxCell>
        <mxCell id="o8yEvAvre60v6KS-ea3h-41" value="......" style="text;html=1;align=center;verticalAlign=middle;whiteSpace=wrap;rounded=0;" parent="o8yEvAvre60v6KS-ea3h-35" vertex="1">
          <mxGeometry x="210" y="115" width="157.14" height="30" as="geometry" />
        </mxCell>
        <mxCell id="3KdPMnEsaD1mvfYVEhLa-9" value="jpaniorte/svc_tasks" style="text;html=1;align=center;verticalAlign=middle;whiteSpace=wrap;rounded=0;" vertex="1" parent="o8yEvAvre60v6KS-ea3h-35">
          <mxGeometry x="100" width="175" height="20" as="geometry" />
        </mxCell>
        <mxCell id="3KdPMnEsaD1mvfYVEhLa-3" value="" style="strokeWidth=2;html=1;shape=mxgraph.flowchart.database;whiteSpace=wrap;" vertex="1" parent="1">
          <mxGeometry x="680" y="790" width="60" height="60" as="geometry" />
        </mxCell>
        <mxCell id="3KdPMnEsaD1mvfYVEhLa-4" style="rounded=0;orthogonalLoop=1;jettySize=auto;html=1;entryX=0.5;entryY=0;entryDx=0;entryDy=0;entryPerimeter=0;" edge="1" parent="1" source="o8yEvAvre60v6KS-ea3h-36" target="3KdPMnEsaD1mvfYVEhLa-3">
          <mxGeometry relative="1" as="geometry" />
        </mxCell>
        <mxCell id="3KdPMnEsaD1mvfYVEhLa-5" value="volume1" style="edgeLabel;html=1;align=center;verticalAlign=middle;resizable=0;points=[];" vertex="1" connectable="0" parent="3KdPMnEsaD1mvfYVEhLa-4">
          <mxGeometry x="0.0054" y="1" relative="1" as="geometry">
            <mxPoint as="offset" />
          </mxGeometry>
        </mxCell>
        <mxCell id="3KdPMnEsaD1mvfYVEhLa-6" value="" style="strokeWidth=2;html=1;shape=mxgraph.flowchart.database;whiteSpace=wrap;" vertex="1" parent="1">
          <mxGeometry x="890" y="790" width="60" height="60" as="geometry" />
        </mxCell>
        <mxCell id="3KdPMnEsaD1mvfYVEhLa-7" style="rounded=0;orthogonalLoop=1;jettySize=auto;html=1;entryX=0.5;entryY=0;entryDx=0;entryDy=0;entryPerimeter=0;elbow=vertical;startArrow=classic;startFill=1;" edge="1" parent="1" source="o8yEvAvre60v6KS-ea3h-36" target="3KdPMnEsaD1mvfYVEhLa-6">
          <mxGeometry relative="1" as="geometry" />
        </mxCell>
        <mxCell id="3KdPMnEsaD1mvfYVEhLa-8" value="volume2" style="edgeLabel;html=1;align=center;verticalAlign=middle;resizable=0;points=[];" vertex="1" connectable="0" parent="3KdPMnEsaD1mvfYVEhLa-7">
          <mxGeometry x="0.1692" y="2" relative="1" as="geometry">
            <mxPoint as="offset" />
          </mxGeometry>
        </mxCell>
        <mxCell id="3KdPMnEsaD1mvfYVEhLa-10" value="" style="shape=cube;whiteSpace=wrap;html=1;boundedLbl=1;backgroundOutline=1;darkOpacity=0.05;darkOpacity2=0.1;" vertex="1" parent="1">
          <mxGeometry x="1100" y="520" width="390" height="180" as="geometry" />
        </mxCell>
        <mxCell id="3KdPMnEsaD1mvfYVEhLa-11" value="" style="html=1;whiteSpace=wrap;strokeColor=none;fillColor=#0079D6;labelPosition=center;verticalLabelPosition=middle;verticalAlign=top;align=center;fontSize=12;outlineConnect=0;spacingTop=-6;fontColor=#FFFFFF;sketch=0;shape=mxgraph.sitemap.services;" vertex="1" parent="1">
          <mxGeometry x="1340" y="585" width="85.72" height="50" as="geometry" />
        </mxCell>
        <mxCell id="3KdPMnEsaD1mvfYVEhLa-12" value="" style="shadow=0;dashed=0;html=1;strokeColor=none;fillColor=#4495D1;labelPosition=center;verticalLabelPosition=bottom;verticalAlign=top;align=center;outlineConnect=0;shape=mxgraph.veeam.2d.file_system_browser;" vertex="1" parent="1">
          <mxGeometry x="1160" y="575" width="80" height="70" as="geometry" />
        </mxCell>
        <mxCell id="3KdPMnEsaD1mvfYVEhLa-13" value="jpaniorte/svc_front&lt;div&gt;/app/volume1&lt;/div&gt;" style="text;html=1;align=center;verticalAlign=middle;whiteSpace=wrap;rounded=0;" vertex="1" parent="1">
          <mxGeometry x="1170" y="649" width="60" height="30" as="geometry" />
        </mxCell>
        <mxCell id="3KdPMnEsaD1mvfYVEhLa-14" value="......" style="text;html=1;align=center;verticalAlign=middle;whiteSpace=wrap;rounded=0;" vertex="1" parent="1">
          <mxGeometry x="1310" y="635" width="157.14" height="30" as="geometry" />
        </mxCell>
        <mxCell id="3KdPMnEsaD1mvfYVEhLa-15" value="jpaniorte/svc_front" style="text;html=1;align=center;verticalAlign=middle;whiteSpace=wrap;rounded=0;" vertex="1" parent="1">
          <mxGeometry x="1200" y="520" width="175" height="20" as="geometry" />
        </mxCell>
        <mxCell id="3KdPMnEsaD1mvfYVEhLa-23" style="edgeStyle=orthogonalEdgeStyle;rounded=0;orthogonalLoop=1;jettySize=auto;html=1;entryX=0;entryY=0.5;entryDx=0;entryDy=0;entryPerimeter=0;startArrow=classic;startFill=1;" edge="1" parent="1" source="o8yEvAvre60v6KS-ea3h-36" target="3KdPMnEsaD1mvfYVEhLa-10">
          <mxGeometry relative="1" as="geometry" />
        </mxCell>
        <mxCell id="3KdPMnEsaD1mvfYVEhLa-24" value="frontend" style="edgeLabel;html=1;align=center;verticalAlign=middle;resizable=0;points=[];" vertex="1" connectable="0" parent="3KdPMnEsaD1mvfYVEhLa-23">
          <mxGeometry x="0.0095" y="-2" relative="1" as="geometry">
            <mxPoint as="offset" />
          </mxGeometry>
        </mxCell>
        <mxCell id="3KdPMnEsaD1mvfYVEhLa-25" value="IDE&lt;br&gt;C:\Users\jose\projecto1" style="shape=image;html=1;verticalAlign=top;verticalLabelPosition=bottom;labelBackgroundColor=#ffffff;imageAspect=0;aspect=fixed;image=https://cdn3.iconfinder.com/data/icons/snowish/128x128/apps/accessories-text-editor.png" vertex="1" parent="1">
          <mxGeometry x="1010" y="750.4" width="78" height="78" as="geometry" />
        </mxCell>
        <mxCell id="3KdPMnEsaD1mvfYVEhLa-26" style="edgeStyle=orthogonalEdgeStyle;rounded=0;orthogonalLoop=1;jettySize=auto;html=1;entryX=1;entryY=0.5;entryDx=0;entryDy=0;entryPerimeter=0;" edge="1" parent="1" source="3KdPMnEsaD1mvfYVEhLa-25" target="3KdPMnEsaD1mvfYVEhLa-6">
          <mxGeometry relative="1" as="geometry" />
        </mxCell>
        <mxCell id="3KdPMnEsaD1mvfYVEhLa-28" style="edgeStyle=orthogonalEdgeStyle;rounded=0;orthogonalLoop=1;jettySize=auto;html=1;entryX=0;entryY=0;entryDx=205;entryDy=180;entryPerimeter=0;startArrow=classic;startFill=1;endArrow=none;endFill=0;" edge="1" parent="1" source="3KdPMnEsaD1mvfYVEhLa-3" target="3KdPMnEsaD1mvfYVEhLa-10">
          <mxGeometry relative="1" as="geometry">
            <Array as="points">
              <mxPoint x="710" y="900" />
              <mxPoint x="1190" y="900" />
              <mxPoint x="1190" y="700" />
            </Array>
          </mxGeometry>
        </mxCell>
        <mxCell id="3KdPMnEsaD1mvfYVEhLa-29" value="volume1" style="edgeLabel;html=1;align=center;verticalAlign=middle;resizable=0;points=[];" vertex="1" connectable="0" parent="3KdPMnEsaD1mvfYVEhLa-28">
          <mxGeometry x="-0.1929" y="1" relative="1" as="geometry">
            <mxPoint as="offset" />
          </mxGeometry>
        </mxCell>
        <mxCell id="3KdPMnEsaD1mvfYVEhLa-33" style="edgeStyle=orthogonalEdgeStyle;rounded=0;orthogonalLoop=1;jettySize=auto;html=1;" edge="1" parent="1" source="3KdPMnEsaD1mvfYVEhLa-30" target="3KdPMnEsaD1mvfYVEhLa-10">
          <mxGeometry relative="1" as="geometry" />
        </mxCell>
        <mxCell id="3KdPMnEsaD1mvfYVEhLa-34" value="80" style="edgeLabel;html=1;align=center;verticalAlign=middle;resizable=0;points=[];" vertex="1" connectable="0" parent="3KdPMnEsaD1mvfYVEhLa-33">
          <mxGeometry x="-0.1557" relative="1" as="geometry">
            <mxPoint x="-11" as="offset" />
          </mxGeometry>
        </mxCell>
        <mxCell id="3KdPMnEsaD1mvfYVEhLa-30" value="" style="verticalLabelPosition=bottom;aspect=fixed;html=1;shape=mxgraph.salesforce.web;" vertex="1" parent="1">
          <mxGeometry x="1300" y="781" width="60" height="47.400000000000006" as="geometry" />
        </mxCell>
      </root>
    </mxGraphModel>
  </diagram>
</mxfile>
